Association rules
…
genre_data %>% group_by(year) %>% filter(mean_rating==max(mean_rating)) %>%  select(year, genre, mean_rating)

## # A tibble: 95 x 3
## # Groups:   year [84]
##     year genre           mean_rating
##    <int> <fct>                 <dbl>
##  1  1919 genre_Adventure        2.92
##  2  1919 genre_Drama            2.92
##  3  1920 genre_Romance          3.47
##  4  1920 genre_Drama            3.47
##  5  1922 genre_Drama            3   
##  6  1923 genre_Drama            3.53
##  7  1924 genre_Comedy           3.97
##  8  1925 genre_Adventure        4.12
##  9  1925 genre_Romance          4.12
## 10  1926 genre_Comedy           3.68
## # ... with 85 more rows
…
