second week: Introduction to R and Rstudio
…
.                       .         .

mobile %>%
  filter(!is.na(dim_thickness)) %>% filter(!is.na(dim_length)) %>% 
  filter(!is.na(dim_breadth)) %>% filter(!is.na(weight)) %>% 
  mutate(chegali=weight/(dim_length*dim_breadth*dim_thickness*0.001)) %>% 
  filter(chegali < 1) -> stat
stat %>% select(device)

## # A tibble: 1,014 x 1
##    device
##    <chr> 
##  1 2040  
##  2 OT-308
##  3 OT-292
##  4 OT-228
##  5 OT-665
##  6 OT-361
##  7 OT-223
##  8 OT-217
##  9 OT-213
## 10 OT-209
## # ... with 1,004 more rows
…
